<?xml version="1.0" encoding="UTF-8" standalone="no"?>
<svg
   xmlns:dc="http://purl.org/dc/elements/1.1/"
   xmlns:cc="http://creativecommons.org/ns#"
   xmlns:rdf="http://www.w3.org/1999/02/22-rdf-syntax-ns#"
   xmlns:svg="http://www.w3.org/2000/svg"
   xmlns="http://www.w3.org/2000/svg"
   xmlns:xlink="http://www.w3.org/1999/xlink"
   xmlns:sodipodi="http://sodipodi.sourceforge.net/DTD/sodipodi-0.dtd"
   xmlns:inkscape="http://www.inkscape.org/namespaces/inkscape"
   style="enable-background:new"
   height="512"
   viewBox="0 0 512.40002 512"
   width="512.4"
   version="1.1"
   id="svg948"
   sodipodi:docname="logo.svg"
   inkscape:version="0.92.3 (2405546, 2018-03-11)"
   inkscape:export-filename="/media/ubuntu/Daten/Forks/themeswitch/assets/logo.png"
   inkscape:export-xdpi="96"
   inkscape:export-ydpi="96">
  <metadata
     id="metadata952">
    <rdf:RDF>
      <cc:Work
         rdf:about="">
        <dc:format>image/svg+xml</dc:format>
        <dc:type
           rdf:resource="http://purl.org/dc/dcmitype/StillImage" />
        <dc:title />
      </cc:Work>
    </rdf:RDF>
  </metadata>
  <sodipodi:namedview
     pagecolor="#ffffff"
     bordercolor="#666666"
     borderopacity="1"
     objecttolerance="10"
     gridtolerance="10"
     guidetolerance="10"
     inkscape:pageopacity="0"
     inkscape:pageshadow="2"
     inkscape:window-width="1853"
     inkscape:window-height="1025"
     id="namedview950"
     showgrid="false"
     inkscape:zoom="0.58281065"
     inkscape:cx="466.53446"
     inkscape:cy="74.523324"
     inkscape:window-x="67"
     inkscape:window-y="27"
     inkscape:window-maximized="1"
     inkscape:current-layer="layer1"
     inkscape:snap-bbox="true"
     inkscape:bbox-paths="true"
     inkscape:snap-page="true" />
  <defs
     id="defs920">
    <linearGradient
       inkscape:collect="always"
       id="linearGradient2158">
      <stop
         style="stop-color:#ffffff;stop-opacity:1"
         offset="0"
         id="stop2154" />
      <stop
         style="stop-color:#000000;stop-opacity:0;"
         offset="1"
         id="stop2156" />
    </linearGradient>
    <marker
       inkscape:stockid="TriangleInM"
       orient="auto"
       refY="0.0"
       refX="0.0"
       id="TriangleInM"
       style="overflow:visible"
       inkscape:isstock="true">
      <path
         id="path1040"
         d="M 5.77,0.0 L -2.88,5.0 L -2.88,-5.0 L 5.77,0.0 z "
         style="fill-rule:evenodd;stroke:#000000;stroke-width:1pt;stroke-opacity:1;fill:#ffffff;fill-opacity:1"
         transform="scale(-0.4)" />
    </marker>
    <marker
       inkscape:stockid="EmptyTriangleInL"
       orient="auto"
       refY="0.0"
       refX="0.0"
       id="EmptyTriangleInL"
       style="overflow:visible"
       inkscape:isstock="true">
      <path
         id="path1055"
         d="M 5.77,0.0 L -2.88,5.0 L -2.88,-5.0 L 5.77,0.0 z "
         style="fill-rule:evenodd;fill:#fdfdfd;stroke:#ffff68;stroke-width:1pt;stroke-opacity:1;fill-opacity:1"
         transform="scale(-0.8) translate(-6,0)" />
    </marker>
    <marker
       inkscape:stockid="Arrow1Lstart"
       orient="auto"
       refY="0.0"
       refX="0.0"
       id="Arrow1Lstart"
       style="overflow:visible"
       inkscape:isstock="true">
      <path
         id="path904"
         d="M 0.0,0.0 L 5.0,-5.0 L -12.5,0.0 L 5.0,5.0 L 0.0,0.0 z "
         style="fill-rule:evenodd;stroke:#ffff68;stroke-width:1pt;stroke-opacity:1;fill:#fdfdfd;fill-opacity:1"
         transform="scale(0.8) translate(12.5,0)" />
    </marker>
    <linearGradient
       id="a"
       y2="494"
       gradientUnits="userSpaceOnUse"
       x2="256"
       gradientTransform="matrix(1 0 0 1.076 0 -19.36)"
       y1="18"
       x1="256">
      <stop
         style="stop-color:#eaeaea"
         offset="0"
         id="stop915" />
      <stop
         style="stop-color:#f4f4f4"
         offset="1"
         id="stop917" />
    </linearGradient>
    <linearGradient
       inkscape:collect="always"
       xlink:href="#linearGradient2158"
       id="linearGradient2176"
       x1="12.064835"
       y1="-255.54762"
       x2="164.42621"
       y2="-247.0685"
       gradientUnits="userSpaceOnUse" />
    <linearGradient
       gradientTransform="translate(-502.2537,-28.654574)"
       inkscape:collect="always"
       xlink:href="#linearGradient2158"
       id="linearGradient2176-3"
       x1="12.064835"
       y1="-255.54762"
       x2="164.42621"
       y2="-247.0685"
       gradientUnits="userSpaceOnUse" />
  </defs>
  <g
     inkscape:groupmode="layer"
     id="layer3"
     inkscape:label="text backup"
     style="display:none">
    <flowRoot
       xml:space="preserve"
       id="flowRoot947-2"
       style="font-style:normal;font-variant:normal;font-weight:normal;font-stretch:normal;font-size:192px;line-height:1.25;font-family:Chilanka;-inkscape-font-specification:Chilanka;letter-spacing:0px;word-spacing:0px;fill:#fdfdfd;fill-opacity:1;stroke:#ffffff;stroke-width:11.33899975;stroke-miterlimit:4;stroke-dasharray:none;stroke-opacity:1;enable-background:new"
       transform="translate(-11.535467,222.74079)"><flowRegion
         id="flowRegion949-5"
         style="font-style:normal;font-variant:normal;font-weight:normal;font-stretch:normal;font-size:192px;font-family:Chilanka;-inkscape-font-specification:Chilanka;fill:#fdfdfd;fill-opacity:1;stroke:#ffffff;stroke-width:11.33899975;stroke-miterlimit:4;stroke-dasharray:none;stroke-opacity:1"><rect
           id="rect951-7"
           width="232.74124"
           height="271.16586"
           x="279.65878"
           y="120.11375"
           style="font-style:normal;font-variant:normal;font-weight:normal;font-stretch:normal;font-size:192px;font-family:Chilanka;-inkscape-font-specification:Chilanka;fill:#fdfdfd;fill-opacity:1;stroke:#ffffff;stroke-width:11.33899975;stroke-miterlimit:4;stroke-dasharray:none;stroke-opacity:1" /></flowRegion><flowPara
         id="flowPara953-4">sd</flowPara></flowRoot>    <flowRoot
       xml:space="preserve"
       id="flowRoot938-9"
       style="font-style:normal;font-variant:normal;font-weight:normal;font-stretch:normal;font-size:192px;line-height:1.25;font-family:Chilanka;-inkscape-font-specification:Chilanka;letter-spacing:0px;word-spacing:0px;fill:#000000;fill-opacity:1;stroke:#000000;stroke-width:11.33858299;stroke-miterlimit:4;stroke-dasharray:none;stroke-opacity:1;enable-background:new"
       transform="translate(94.937913,211.466)"><flowRegion
         id="flowRegion940-9"
         style="font-style:normal;font-variant:normal;font-weight:normal;font-stretch:normal;font-size:192px;font-family:Chilanka;-inkscape-font-specification:Chilanka;fill:#000000;fill-opacity:1;stroke:#000000;stroke-width:11.33858299;stroke-miterlimit:4;stroke-dasharray:none;stroke-opacity:1"><rect
           id="rect943-4"
           width="162.57819"
           height="227.48814"
           x="-33.364929"
           y="126.18009"
           style="font-style:normal;font-variant:normal;font-weight:normal;font-stretch:normal;font-size:192px;font-family:Chilanka;-inkscape-font-specification:Chilanka;fill:#000000;fill-opacity:1;stroke:#000000;stroke-width:11.33858299;stroke-miterlimit:4;stroke-dasharray:none;stroke-opacity:1" /></flowRegion><flowPara
         id="flowPara945-5">a</flowPara></flowRoot>  </g>
  <path
     d="m-208.3 605.6c-7.842 0-14.55 5.029-17.32 12.19-0.0612-0.00067-0.1208 0-0.1823 0-7.088 0-12.83 6.002-12.83 13.41 0 7.404 5.746 13.41 12.83 13.41h17.5 16.33c5.155 0 9.333-4.365 9.333-9.75 0-4.543-2.974-8.363-7-9.445 0.001-0.1029 0-0.2015 0-0.3047 0-10.77-8.357-19.5-18.67-19.5z"
     style="stroke-width:4;color:#000000;stroke:#ccc;enable-background:accumulate;display:none;fill:#fff"
     id="path932" />
  <path
     style="stroke-width:4;color:#000000;stroke:#ccc;enable-background:accumulate;display:none;fill:none"
     d="m288.9 828.1c-6.349 0-11.78 4.072-14.02 9.867-0.0496-0.00055-0.0978 0-0.1476 0-5.738 0-10.39 4.86-10.39 10.85 0 5.995 4.652 10.85 10.39 10.85h14.17 13.22c4.173 0 7.557-3.534 7.557-7.894 0-3.678-2.408-6.771-5.667-7.647 0.001-0.0833 0-0.1632 0-0.2467 0-8.719-6.766-15.79-15.11-15.79z"
     id="path934" />
  <g
     style="display:none"
     transform="translate(0 -558.4)"
     id="g946">
    <path
       d="m166.1 576.4h179.9c145.3 0 166.1 20.74 166.1 165.9v144.2c0 145.2-20.76 165.9-166.1 165.9h-179.9c-145.3 0-166.1-20-166.1-165.5v-144.2c0-145.2 20.76-165.9 166.1-165.9z"
       style="stroke:#00f;fill:#00f;display:inline;fill-opacity:.08118"
       id="path936" />
    <circle
       style="stroke-width:.8333;fill-opacity:.08118;color:#000000;stroke:#00f;enable-background:accumulate;display:inline;fill:#00f"
       cx="256"
       transform="matrix(1.2 0 0 1.2 -51.2 528.8)"
       cy="238"
       r="120"
       id="circle938" />
    <rect
       style="stroke-linejoin:round;fill-opacity:.08118;color:#000000;stroke:#00f;stroke-linecap:round;enable-background:accumulate;display:inline;fill:#00f"
       height="272"
       width="272"
       y="678.4"
       x="120"
       id="rect940" />
    <rect
       style="stroke-linejoin:round;fill-opacity:.08118;color:#000000;stroke:#00f;stroke-linecap:round;enable-background:accumulate;display:inline;fill:#00f"
       height="240"
       width="304"
       y="694.4"
       x="104"
       id="rect942" />
    <rect
       style="stroke-linejoin:round;fill-opacity:.08118;color:#000000;stroke:#00f;stroke-linecap:round;enable-background:accumulate;display:inline;fill:#00f"
       height="304"
       width="240"
       y="662.4"
       x="136"
       id="rect944" />
  </g>
  <g
     inkscape:groupmode="layer"
     id="layer2"
     inkscape:label="background">
    <rect
       style="enable-background:new;fill:#000000;fill-opacity:1;stroke:#5f5f60;stroke-width:0;stroke-miterlimit:4;stroke-dasharray:none;stroke-opacity:1"
       id="rect1099-3"
       width="256.20001"
       height="512"
       x="256.20001"
       y="0" />
    <rect
       style="enable-background:new;fill:#ffffff;fill-opacity:1;stroke:#5f5f60;stroke-width:0;stroke-miterlimit:4;stroke-dasharray:none;stroke-opacity:1"
       id="rect1099"
       width="256.20001"
       height="512"
       x="-2.5e-07"
       y="0" />
  </g>
  <g
     inkscape:groupmode="layer"
     id="layer1"
     inkscape:label="text">
    <g
       aria-label="sd"
       transform="translate(-0.91888143,27.047301)"
       style="font-style:normal;font-variant:normal;font-weight:normal;font-stretch:normal;font-size:192px;line-height:1.25;font-family:Chilanka;-inkscape-font-specification:Chilanka;letter-spacing:0px;word-spacing:0px;fill:#fdfdfd;fill-opacity:1;stroke:#ffffff;stroke-width:11.33899975;stroke-miterlimit:4;stroke-dasharray:none;stroke-opacity:1;enable-background:new"
       id="flowRoot947">
      <path
         d="m 367.68945,198.14453 q 0.0937,2.53125 -1.6875,4.40625 -1.6875,1.78125 -4.21875,1.875 -2.53125,0 -4.3125,-1.6875 -6.65625,-6.375 -15.84375,-9.9375 -9.09375,-3.65625 -16.5,-3.75 -19.6875,-0.1875 -23.25,10.5 -2.71875,8.15625 4.5,14.71875 7.21875,6.5625 26.34375,5.0625 14.8125,-0.46875 22.59375,3.5625 7.78125,4.03125 11.4375,11.4375 3.75,7.40625 2.0625,14.71875 -3.09375,13.6875 -16.96875,19.96875 -10.6875,4.875 -22.5,3.84375 -22.3125,-2.15625 -36.9375,-15 -1.875,-1.59375 -2.0625,-4.125 -0.0937,-2.625 1.5,-4.5 1.6875,-1.875 4.21875,-1.96875 2.53125,-0.1875 4.40625,1.40625 11.71875,10.21875 28.21875,11.8125 16.59375,1.59375 24.75,-7.21875 5.90625,-6.46875 2.4375,-13.59375 -4.40625,-8.8125 -20.90625,-8.0625 -16.40625,0.65625 -23.90625,-1.3125 -7.40625,-2.0625 -13.125,-7.21875 -5.71875,-5.25 -7.875,-12.5625 -2.15625,-7.40625 0.28125,-14.8125 2.4375,-7.40625 8.15625,-11.71875 9.75,-7.3125 23.0625,-7.125 26.71875,0.28125 44.25,17.0625 1.78125,1.6875 1.875,4.21875 z"
         style=""
         id="path892" />
      <path
         d="m 479.25195,222.42578 q 0.75,1.96875 0.5625,7.875 -0.0937,5.8125 0.46875,13.875 0.5625,8.0625 0.75,13.78125 0.28125,5.71875 -0.46875,8.25 -0.75,2.34375 -3.1875,3.5625 -2.25,1.21875 -4.59375,0.375 -3.84375,-1.21875 -4.3125,-6 -0.375,-4.875 -0.65625,-13.125 -13.875,21.84375 -35.625,20.53125 -24.375,-1.40625 -36.28125,-19.59375 -9.375,-14.4375 -7.59375,-33.09375 1.875,-18.65625 13.03125,-32.0625 11.15625,-13.5 29.0625,-12 18,1.40625 36.65625,20.90625 0,-11.625 0.0937,-31.21875 l 0.1875,-22.875 q 0,-2.53125 1.875,-4.3125 1.78125,-1.78125 4.21875,-1.6875 2.53125,0 4.3125,1.78125 1.78125,1.6875 1.78125,4.3125 l -0.1875,22.96875 q -0.28125,40.96875 -0.0937,57.75 z m -12.1875,-7.875 q -20.34375,-26.15625 -37.96875,-27.65625 -11.25,-0.9375 -19.21875,8.625 -7.96875,9.5625 -9.375,24.28125 -1.40625,14.625 5.71875,25.5 8.4375,13.125 27,14.15625 20.34375,1.125 31.78125,-30.65625 1.40625,-3.9375 2.0625,-5.71875 0,-4.125 0,-8.53125 z"
         style=""
         id="path894" />
    </g>
    <g
       aria-label="a"
       transform="translate(105.5545,15.772512)"
       style="font-style:normal;font-variant:normal;font-weight:normal;font-stretch:normal;font-size:192px;line-height:1.25;font-family:Chilanka;-inkscape-font-specification:Chilanka;letter-spacing:0px;word-spacing:0px;fill:#000000;fill-opacity:1;stroke:#000000;stroke-width:11.33858299;stroke-miterlimit:4;stroke-dasharray:none;stroke-opacity:1;enable-background:new"
       id="flowRoot938">
      <path
         d="m 58.978516,213.02344 q 0.75,2.8125 -0.5625,7.125 -3.375,35.53125 1.3125,52.78125 0.65625,2.4375 -0.65625,4.59375 -1.21875,2.15625 -3.65625,2.8125 -2.34375,0.65625 -4.59375,-0.65625 -2.15625,-1.21875 -2.8125,-3.65625 -2.90625,-10.875 -3.09375,-27.375 -9,14.4375 -19.125,22.59375 -6.1875,4.96875 -12.75,5.625 -6.7500004,1.96875 -13.40625038,0.46875 -6.56250002,-1.5 -11.62499962,-6.28125 -9.84375,-9.28125 -11.71875,-27 -1.78125,-17.8125 6.375,-33.84375 9.7499996,-19.125 29.625,-25.5 17.4375,-5.71875 31.125,1.59375 13.78125,7.3125 15.5625,26.71875 z m -12.1875,0.84375 q -1.21875,-12.65625 -9.75,-17.15625 -8.4375,-4.5 -21,-0.375 -15.0000004,4.78125 -22.0312504,18.5625 -7.0312496,13.6875 -5.6249996,27.46875 1.40625,13.6875 7.4062496,19.40625 6.09375,5.625 14.4375004,3.1875 0.75,-0.1875 2.25,-0.28125 1.59375,-0.0937 6.375,-3.84375 12.65625,-9.9375 23.53125,-33.375 2.8125,-6.09375 4.03125,-9.75 0.1875,-1.875 0.375,-3.84375 z"
         style=""
         id="path889" />
    </g>
    <path
       style="opacity:1;fill:none;fill-opacity:1;stroke:url(#linearGradient2176);stroke-width:20.01125153;stroke-linecap:butt;stroke-linejoin:round;stroke-miterlimit:4;stroke-dasharray:none;stroke-opacity:1;paint-order:normal"
       id="path901"
       sodipodi:type="arc"
       sodipodi:cx="164.48454"
       sodipodi:cy="-247.06653"
       sodipodi:rx="78.670952"
       sodipodi:ry="118.307"
       sodipodi:start="1.5787079"
       sodipodi:end="4.7115861"
       sodipodi:open="true"
       d="M 163.86214,-128.76323 A 78.670952,118.307 0 0 1 85.814088,-247.48703 78.670952,118.307 0 0 1 164.42138,-365.37349"
       transform="matrix(0.05462796,0.99850678,-0.99997384,0.00723323,0,0)" />
    <path
       style="opacity:1;fill:none;fill-opacity:1;stroke:url(#linearGradient2176-3);stroke-width:20.01125145;stroke-linecap:butt;stroke-linejoin:round;stroke-miterlimit:4;stroke-dasharray:none;stroke-opacity:1;paint-order:normal;enable-background:new"
       id="path901-0"
       sodipodi:type="arc"
       sodipodi:cx="-337.76917"
       sodipodi:cy="-275.7211"
       sodipodi:rx="78.670952"
       sodipodi:ry="118.307"
       sodipodi:start="1.5787079"
       sodipodi:end="4.7115861"
       sodipodi:open="true"
       d="m -338.39157,-157.4178 a 78.670952,118.307 0 0 1 -78.04805,-118.7238 78.670952,118.307 0 0 1 78.60729,-117.88646"
       transform="matrix(0.05462796,-0.99850678,-0.99997384,-0.00723323,0,0)" />
  </g>
  <g
     inkscape:groupmode="layer"
     id="layer4"
     inkscape:label="circle" />
</svg>
